agreement-probing-stats
…
humans <- read_excel("./data number attr.xlsx")

We add columns encoding grammaticality kind of the sentence:
gram(matical), (ungrammatical with)
distr(actor), ungram(matical)

rubert_comp

## # A tibble: 512 × 20
##     ...1  Prot  Sent Group N1    N2    Pred  Code  Sentence          left  right
##    <dbl> <dbl> <dbl> <dbl> <chr> <chr> <chr> <chr> <chr>             <chr> <chr>
##  1     0     1     1     1 S     S     S     S_S-S Абонемент на кон… Абон… был …
##  2     1     2     1     1 S     S     P     P_S-S Абонемент на кон… Абон… были…
##  3     2     3     1     1 S     P     S     S_S-P Абонемент на кон… Абон… был …
##  4     3     4     1     1 S     P     P     P_S-P Абонемент на кон… Абон… были…
##  5     4     5     1     1 P     S     S     S_P-S Абонементы на ко… Абон… был …
##  6     5     6     1     1 P     S     P     P_P-S Абонементы на ко… Абон… были…
##  7     6     7     1     1 P     P     S     S_P-P Абонементы на ко… Абон… был …
##  8     7     8     1     1 P     P     P     P_P-P Абонементы на ко… Абон… были…
##  9     8     1     2     1 S     S     P     P_S-S Анекдот про экза… Анек… были…
## 10     9     2     2     1 S     P     S     S_S-P Анекдот про экза… Анек… был …
## # ℹ 502 more rows
## # ℹ 9 more variables: masked_left <chr>, masked_full <chr>,
## #   need_to_predict <chr>, left_bert_is_singular <lgl>,
## #   full_bert_is_singular <lgl>, left_bert_is_singular_score <dbl>,
## #   left_bert_is_plural_score <dbl>, full_bert_is_singular_score <dbl>,
## #   full_bert_is_plural_score <dbl>
…
rubert_comp %>% 
  mutate(is_distr_different = N2 != N1, .after = Pred) ->
  rubert_comp
  
gpt_comp %>%
  add_grammaticality_column(.) %>%
  convert_to_factor_columns(.) ->
  gpt_comp

rubert_comp

## # A tibble: 512 × 25
##     ...1  Prot  Sent Group N1    N2    Pred  is_distr_different kind  is_correct
##    <dbl> <dbl> <dbl> <dbl> <fct> <fct> <fct> <lgl>              <fct> <lgl>     
##  1     0     1     1     1 S     S     S     FALSE              gram  TRUE      
##  2     1     2     1     1 S     S     P     FALSE              ungr… FALSE     
##  3     2     3     1     1 S     P     S     TRUE               gram  TRUE      
##  4     3     4     1     1 S     P     P     TRUE               distr FALSE     
##  5     4     5     1     1 P     S     S     TRUE               distr FALSE     
##  6     5     6     1     1 P     S     P     TRUE               gram  TRUE      
##  7     6     7     1     1 P     P     S     FALSE              ungr… FALSE     
##  8     7     8     1     1 P     P     P     FALSE              gram  TRUE      
##  9     8     1     2     1 S     S     P     FALSE              ungr… FALSE     
## 10     9     2     2     1 S     P     S     TRUE               gram  TRUE      
## # ℹ 502 more rows
## # ℹ 15 more variables: is_distractor <lgl>, distr_like_pl <lgl>, Code <fct>,
## #   Sentence <chr>, left <chr>, right <chr>, masked_left <chr>,
## #   masked_full <chr>, need_to_predict <chr>, left_bert_is_singular <lgl>,
## #   full_bert_is_singular <lgl>, left_bert_is_singular_score <dbl>,
## #   left_bert_is_plural_score <dbl>, full_bert_is_singular_score <dbl>,
## #   full_bert_is_plural_score <dbl>
…
show_left_scores <- function(df, df_name){
  text_left_col = as.symbol(ifelse(df_name=="gpt", "left", "masked_left"))
  
  df %>%
    arrange(Sent, N1, N2, Pred) %>%
    select(N1, N2, Pred, Code, !!text_left_col, contains("left") & contains("score"))
}

rubert_comp %>%
  show_left_scores(., "bert")

## # A tibble: 512 × 7
##    N1    N2    Pred  Code  masked_left                   left_bert_is_singular…¹
##    <fct> <fct> <fct> <fct> <chr>                                           <dbl>
##  1 P     P     P     P_P-P Абонементы на концерты [MASK]                  -1.36 
##  2 P     P     S     S_P-P Абонементы на концерты [MASK]                  -1.36 
##  3 P     S     P     P_P-S Абонементы на концерт [MASK]                   -0.349
##  4 P     S     S     S_P-S Абонементы на концерт [MASK]                   -0.349
##  5 S     P     P     P_S-P Абонемент на концерты [MASK]                    2.11 
##  6 S     P     S     S_S-P Абонемент на концерты [MASK]                    2.11 
##  7 S     S     P     P_S-S Абонемент на концерт [MASK]                     3.07 
##  8 S     S     S     S_S-S Абонемент на концерт [MASK]                     3.07 
##  9 P     P     P     P_P-P Анекдоты про экзамены [MASK]                   -1.26 
## 10 P     P     S     S_P-P Анекдоты про экзамены [MASK]                   -1.26 
## # ℹ 502 more rows
## # ℹ abbreviated name: ¹​left_bert_is_singular_score
## # ℹ 1 more variable: left_bert_is_plural_score <dbl>
…
Naturally, this is true for GPT too.

gpt_comp %>%
    show_left_scores(., "gpt")

## # A tibble: 512 × 7
##    N1    N2    Pred  Code  left    left_gpt_is_singular…¹ left_gpt_is_plural_s…²
##    <fct> <fct> <fct> <fct> <chr>                    <dbl>                  <dbl>
##  1 P     P     P     P_P-P Абонем…                 -3.68                  -1.29 
##  2 P     P     S     S_P-P Абонем…                 -3.68                  -1.29 
##  3 P     S     P     P_P-S Абонем…                 -2.09                  -0.497
##  4 P     S     S     S_P-S Абонем…                 -2.09                  -0.497
##  5 S     P     P     P_S-P Абонем…                 -0.139                 -4.03 
##  6 S     P     S     S_S-P Абонем…                 -0.139                 -4.03 
##  7 S     S     P     P_S-S Абонем…                  0.552                 -4.21 
##  8 S     S     S     S_S-S Абонем…                  0.552                 -4.21 
##  9 P     P     P     P_P-P Анекдо…                 -2.88                   1.05 
## 10 P     P     S     S_P-P Анекдо…                 -2.88                   1.05 
## # ℹ 502 more rows
## # ℹ abbreviated names: ¹​left_gpt_is_singular_score, ²​left_gpt_is_plural_score
…
3-valued kind calculation, distinct pred

rubert_comp

## # A tibble: 256 × 27
##     ...1  Prot  Sent Group N1    N2    Pred  is_distr_different kind  is_correct
##    <dbl> <dbl> <dbl> <dbl> <fct> <fct> <fct> <lgl>              <fct> <lgl>     
##  1     0     1     1     1 S     S     S     FALSE              gram  TRUE      
##  2     2     3     1     1 S     P     S     TRUE               gram  TRUE      
##  3     4     5     1     1 P     S     S     TRUE               distr FALSE     
##  4     6     7     1     1 P     P     S     FALSE              ungr… FALSE     
##  5     9     2     2     1 S     P     S     TRUE               gram  TRUE      
##  6    11     4     2     1 P     S     S     TRUE               distr FALSE     
##  7    13     6     2     1 P     P     S     FALSE              ungr… FALSE     
##  8    15     8     2     1 S     S     S     FALSE              gram  TRUE      
##  9    16     1     3     1 S     P     S     TRUE               gram  TRUE      
## 10    18     3     3     1 P     S     S     TRUE               distr FALSE     
## # ℹ 246 more rows
## # ℹ 17 more variables: is_distractor <lgl>, distr_like_pl <lgl>, Code <fct>,
## #   Sentence <chr>, left <chr>, right <chr>, masked_left <chr>,
## #   masked_full <chr>, need_to_predict <chr>, left_bert_is_singular <lgl>,
## #   full_bert_is_singular <lgl>, left_bert_is_singular_score <dbl>,
## #   left_bert_is_plural_score <dbl>, full_bert_is_singular_score <dbl>,
## #   full_bert_is_plural_score <dbl>, verb_correct_delta <dbl>, …
…
rubert_comp %>%
  make_kind2_scores() ->
  rubert_comp_scores

rubert_comp_scores

## # A tibble: 512 × 28
##     ...1  Prot  Sent Group N1    N2    Pred  is_distr_different kind  is_correct
##    <dbl> <dbl> <dbl> <dbl> <fct> <fct> <fct> <lgl>              <fct> <lgl>     
##  1     0     1     1     1 S     S     S     FALSE              gram  TRUE      
##  2     0     1     1     1 S     S     S     FALSE              gram  TRUE      
##  3     2     3     1     1 S     P     S     TRUE               gram  TRUE      
##  4     2     3     1     1 S     P     S     TRUE               gram  TRUE      
##  5     4     5     1     1 P     S     S     TRUE               distr FALSE     
##  6     4     5     1     1 P     S     S     TRUE               distr FALSE     
##  7     6     7     1     1 P     P     S     FALSE              ungr… FALSE     
##  8     6     7     1     1 P     P     S     FALSE              ungr… FALSE     
##  9     9     2     2     1 S     P     S     TRUE               gram  TRUE      
## 10     9     2     2     1 S     P     S     TRUE               gram  TRUE      
## # ℹ 502 more rows
## # ℹ 18 more variables: is_distractor <lgl>, distr_like_pl <lgl>, Code <fct>,
## #   Sentence <chr>, left <chr>, right <chr>, masked_left <chr>,
## #   masked_full <chr>, need_to_predict <chr>, left_bert_is_singular <lgl>,
## #   full_bert_is_singular <lgl>, full_bert_is_singular_score <dbl>,
## #   full_bert_is_plural_score <dbl>, verb_correct_delta <dbl>,
## #   verb_correct_delta2 <dbl>, Pred2 <chr>, kind2 <fct>, score <dbl>

gpt_comp %>%
  make_kind2_scores() ->
  gpt_comp_scores

gpt_comp_scores

## # A tibble: 512 × 21
##     ...1  Prot  Sent Group N1    N2    Pred  is_distr_different kind  is_correct
##    <dbl> <dbl> <dbl> <dbl> <fct> <fct> <fct> <lgl>              <fct> <lgl>     
##  1     0     1     1     1 S     S     S     FALSE              gram  TRUE      
##  2     0     1     1     1 S     S     S     FALSE              gram  TRUE      
##  3     2     3     1     1 S     P     S     TRUE               gram  TRUE      
##  4     2     3     1     1 S     P     S     TRUE               gram  TRUE      
##  5     4     5     1     1 P     S     S     TRUE               distr FALSE     
##  6     4     5     1     1 P     S     S     TRUE               distr FALSE     
##  7     6     7     1     1 P     P     S     FALSE              ungr… FALSE     
##  8     6     7     1     1 P     P     S     FALSE              ungr… FALSE     
##  9     9     2     2     1 S     P     S     TRUE               gram  TRUE      
## 10     9     2     2     1 S     P     S     TRUE               gram  TRUE      
## # ℹ 502 more rows
## # ℹ 11 more variables: is_distractor <lgl>, distr_like_pl <lgl>, Code <fct>,
## #   Sentence <chr>, left <chr>, right <chr>, verb_correct_delta <dbl>,
## #   verb_correct_delta2 <dbl>, Pred2 <chr>, kind2 <fct>, score <dbl>
…
Humans

humans

## # A tibble: 28,796 × 10
##     part    rt sent  group pred  subj    reg  snum  anum   err
##    <dbl> <dbl> <chr> <dbl> <chr> <chr> <dbl> <dbl> <dbl> <dbl>
##  1    33  180. S1        1 S     S-S       1     0     0     0
##  2    20  184  S1        1 S     P-S       1     1     0     1
##  3    15  188. S1        1 P     S-P       1     0     1     1
##  4     4  195. S1        1 S     S-S       1     0     0     0
##  5    27  203. S1        1 S     P-P       1     1     1     1
##  6     1  205. S1        1 S     S-S       1     0     0     0
##  7     2  205. S1        1 S     S-S       1     0     0     0
##  8    14  221. S1        1 P     S-P       1     0     1     1
##  9    39  234. S1        1 S     P-P       1     1     1     1
## 10    36  242. S1        1 P     S-P       1     0     1     1
## # ℹ 28,786 more rows

humans %>% pull(part) %>% unique() %>% length()

## [1] 40

humans_word4 = humans %>% filter(reg == 4)
humans_word4

## # A tibble: 3,200 × 10
##     part    rt sent  group pred  subj    reg  snum  anum   err
##    <dbl> <dbl> <chr> <dbl> <chr> <chr> <dbl> <dbl> <dbl> <dbl>
##  1    33  163. S1        1 S     S-S       4     0     0     0
##  2     4  178. S1        1 S     S-S       4     0     0     0
##  3    15  190. S1        1 P     S-P       4     0     1     1
##  4    26  192. S1        1 S     P-P       4     1     1     1
##  5     2  197. S1        1 S     S-S       4     0     0     0
##  6    28  198. S1        1 S     P-P       4     1     1     1
##  7    27  203. S1        1 S     P-P       4     1     1     1
##  8    20  205. S1        1 S     P-S       4     1     0     1
##  9    35  218. S1        1 S     S-P       4     0     1     0
## 10    11  233. S1        1 S     S-P       4     0     1     0
## # ℹ 3,190 more rows

humans_word5 = humans %>% filter(reg == 5)
humans_word5

## # A tibble: 3,200 × 10
##     part    rt sent  group pred  subj    reg  snum  anum   err
##    <dbl> <dbl> <chr> <dbl> <chr> <chr> <dbl> <dbl> <dbl> <dbl>
##  1    33  196. S1        1 S     S-S       5     0     0     0
##  2     2  204. S1        1 S     S-S       5     0     0     0
##  3     4  210. S1        1 S     S-S       5     0     0     0
##  4    20  216. S1        1 S     P-S       5     1     0     1
##  5    15  227. S1        1 P     S-P       5     0     1     1
##  6    32  230. S1        1 P     P-P       5     1     1     0
##  7    26  232. S1        1 S     P-P       5     1     1     1
##  8    37  240  S1        1 S     P-S       5     1     0     1
##  9    27  242. S1        1 S     P-P       5     1     1     1
## 10    39  251. S1        1 S     P-P       5     1     1     1
## # ℹ 3,190 more rows
…
##  [1] "S1"  "S10" "S11" "S12" "S13" "S14" "S15" "S16" "S17" "S18" "S19" "S2" 
## [13] "S20" "S21" "S22" "S23" "S24" "S25" "S26" "S27" "S28" "S29" "S3"  "S30"
## [25] "S31" "S32" "S33" "S34" "S35" "S36" "S37" "S38" "S39" "S4"  "S40" "S5" 
## [37] "S6"  "S7"  "S8"  "S9"  "S41" "S42" "S43" "S44" "S45" "S46" "S47" "S48"
## [49] "S49" "S50" "S51" "S52" "S53" "S54" "S55" "S56" "S57" "S58" "S59" "S60"
## [61] "S61" "S62" "S63" "S64" "S65" "S66" "S67" "S68" "S69" "S70" "S71" "S72"
## [73] "S73" "S74" "S75" "S76" "S77" "S78" "S79" "S80"

humans_word4 %>%
  filter(sent=="S1") %>%
  select(part, sent, subj, pred, rt) %>%
  arrange(part, sent,  subj, pred)

## # A tibble: 40 × 5
##     part sent  subj  pred     rt
##    <dbl> <chr> <chr> <chr> <dbl>
##  1     1 S1    S-S   S      305.
##  2     2 S1    S-S   S      197.
##  3     3 S1    S-S   S      272.
##  4     4 S1    S-S   S      178.
##  5     5 S1    S-S   P      474.
##  6     6 S1    S-S   P      358.
##  7     7 S1    S-S   P      488.
##  8     8 S1    S-S   P      368.
##  9     9 S1    S-P   S      362.
## 10    10 S1    S-P   S      376.
## # ℹ 30 more rows

humans_word4 %>%
  select(part, sent, subj, pred, rt) %>%
  # group_by(part, sent, subj) %>%
  arrange(part, sent,  subj) %>%
  pivot_wider(names_from = pred, values_from = rt)

## # A tibble: 3,200 × 5
##     part sent  subj      S     P
##    <dbl> <chr> <chr> <dbl> <dbl>
##  1     1 S1    S-S    305.   NA 
##  2     1 S10   S-S     NA   277.
##  3     1 S11   S-P    178    NA 
##  4     1 S12   S-P     NA   445.
##  5     1 S13   P-S    282.   NA 
##  6     1 S14   P-S     NA   317 
##  7     1 S15   P-P    261.   NA 
##  8     1 S16   P-P     NA   429.
##  9     1 S17   S-S    332    NA 
## 10     1 S18   S-S     NA   259.
## # ℹ 3,190 more rows
…
humans

## # A tibble: 28,796 × 15
##     part    rt sent  group pred  kind   is_correct is_distractor N1    N2   
##    <dbl> <dbl> <chr> <dbl> <chr> <fct>  <lgl>      <lgl>         <chr> <chr>
##  1    33  180. S1        1 S     gram   TRUE       TRUE          S     S    
##  2    20  184  S1        1 S     distr  FALSE      TRUE          P     S    
##  3    15  188. S1        1 P     distr  FALSE      TRUE          S     P    
##  4     4  195. S1        1 S     gram   TRUE       TRUE          S     S    
##  5    27  203. S1        1 S     ungram FALSE      FALSE         P     P    
##  6     1  205. S1        1 S     gram   TRUE       TRUE          S     S    
##  7     2  205. S1        1 S     gram   TRUE       TRUE          S     S    
##  8    14  221. S1        1 P     distr  FALSE      TRUE          S     P    
##  9    39  234. S1        1 S     ungram FALSE      FALSE         P     P    
## 10    36  242. S1        1 P     distr  FALSE      TRUE          S     P    
## # ℹ 28,786 more rows
## # ℹ 5 more variables: reg <dbl>, snum <dbl>, anum <dbl>, err <dbl>,
## #   is_distr_different <lgl>
…
gpt_result$results

## # A tibble: 40 × 50
##        i model call                n_observations n_rand_effect_groups optimizer
##  * <int> <chr> <chr>               <chr>          <chr>                <chr>    
##  1     1 gpt   lmer(value ~ Y + N… 1024           64                   nloptwrap
##  2     2 gpt   lmer(value ~ Y + N… 1024           64                   nloptwrap
##  3     3 gpt   lmer(value ~ Y + N… 1024           64                   nloptwrap
##  4     4 gpt   lmer(value ~ Y + N… 1024           64                   nloptwrap
##  5     5 gpt   lmer(value ~ Y + N… 1024           64                   nloptwrap
##  6     6 gpt   lmer(value ~ Y + N… 1024           64                   nloptwrap
##  7     7 gpt   lmer(value ~ Y + N… 1024           64                   nloptwrap
##  8     8 gpt   lmer(value ~ Y + N… 1024           64                   nloptwrap
##  9     9 gpt   lmer(value ~ Y + N… 1024           64                   nloptwrap
## 10    10 gpt   lmer(value ~ Y + N… 1024           64                   nloptwrap
## # ℹ 30 more rows
## # ℹ 44 more variables: optimizer_message <chr>, REML <dbl>, logLik <dbl>,
## #   Intercept_Estimate <dbl>, Yoh_Estimate <dbl>, N1S_Estimate <dbl>,
## #   N2S_Estimate <dbl>, PredS_Estimate <dbl>, Intercept_stdError <dbl>,
## #   Yoh_stdError <dbl>, N1S_stdError <dbl>, N2S_stdError <dbl>,
## #   PredS_stdError <dbl>, Intercept_df <dbl>, Yoh_df <dbl>, N1S_df <dbl>,
## #   N2S_df <dbl>, PredS_df <dbl>, `Intercept_t value` <dbl>, …
…
gpt_result$results

## # A tibble: 40 × 41
##        i model call                n_observations n_rand_effect_groups optimizer
##  * <int> <chr> <chr>               <chr>          <chr>                <chr>    
##  1     1 gpt   lmer(sh1 ~ N1 + N2… 512            64                   nloptwrap
##  2     2 gpt   lmer(sh2 ~ N1 + N2… 512            64                   nloptwrap
##  3     3 gpt   lmer(sh3 ~ N1 + N2… 512            64                   nloptwrap
##  4     4 gpt   lmer(sh4 ~ N1 + N2… 512            64                   nloptwrap
##  5     5 gpt   lmer(sh5 ~ N1 + N2… 512            64                   nloptwrap
##  6     6 gpt   lmer(sh6 ~ N1 + N2… 512            64                   nloptwrap
##  7     7 gpt   lmer(sh7 ~ N1 + N2… 512            64                   nloptwrap
##  8     8 gpt   lmer(sh8 ~ N1 + N2… 512            64                   nloptwrap
##  9     9 gpt   lmer(sh9 ~ N1 + N2… 512            64                   nloptwrap
## 10    10 gpt   lmer(sh10 ~ N1 + N… 512            64                   nloptwrap
## # ℹ 30 more rows
## # ℹ 35 more variables: optimizer_message <chr>, REML <dbl>, logLik <dbl>,
## #   Intercept_Estimate <dbl>, N1S_Estimate <dbl>, N2S_Estimate <dbl>,
## #   PredS_Estimate <dbl>, Intercept_stdError <dbl>, N1S_stdError <dbl>,
## #   N2S_stdError <dbl>, PredS_stdError <dbl>, Intercept_df <dbl>, N1S_df <dbl>,
## #   N2S_df <dbl>, PredS_df <dbl>, `Intercept_t value` <dbl>,
## #   `N1S_t value` <dbl>, `N2S_t value` <dbl>, `PredS_t value` <dbl>, …
…
